{
  "type": "table",
  "name": "point_rules",
  "database": "ombazar",
  "data": [
      {
          "id": "1",
          "rule_name": "Sale point",
          "unit": 1,
          "unit_symbol": "৳",
          "expand_symbol": "Point",
          "amount": 0,
          "active": 1,
          "description": ""
      },
      {
          "id": "2",
          "rule_name": "Point convert to balance",
          "unit": 1,
          "unit_symbol": "Point",
          "expand_symbol": "৳",
          "amount": 0,
          "active": 1,
          "description": ""
      },
      {
          "id": "3",
          "rule_name": "Top up point",
          "unit": 1,
          "unit_symbol": "৳",
          "expand_symbol": "Point",
          "amount": 1,
          "active": 1,
          "description": ""
      }
  ]
}